[
    {
        "type": "Stones",
        "flavors": {
            "Agate": "L_SLATE",
            "Alexandrite": "GREEN",
            "Amethyst": "L_PURPLE",
            "Aquamarine": "L_BLUE",
            "Azurite": "L_BLUE",
            "Beryl": "L_GREEN",
            "Bloodstone": "RED",
            "Calcite": "WHITE",
            "Carnelian": "RED",
            "Corundum": "SLATE",
            "Diamond": "WHITE",
            "Emerald": "GREEN",
            "Flintstone": "SLATE",
            "Fluorite": "L_GREEN",
            "Garnet": "RED",
            "Granite": "L_SLATE",
            "Jade": "L_GREEN",
            "Jasper": "UMBER",
            "Jet": "L_DARK",
            "Lapis Lazuli": "BLUE",
            "Malachite": "GREEN",
            "Marble": "WHITE",
            "Moonstone": "L_SLATE",
            "Obsidian": "L_DARK",
            "Onyx": "L_RED",
            "Opal": "L_SLATE",
            "Pearl": "WHITE",
            "Quartz": "L_SLATE",
            "Quartzite": "L_SLATE",
            "Rhodonite": "L_RED",
            "Ruby": "RED"
        }
    }, 
    {
        "type": "Miscellaneous",
        "flavors": {
            "Amber": "YELLOW",
            "Bone": "WHITE",
            "Carved Oak": "UMBER",
            "Coral": "WHITE",
            "Crystal": "WHITE",
            "Dragon Tooth": "L_SLATE",
            "Driftwood": "L_UMBER",
            "Ivory": "WHITE",
            "Mother-of-Pearl": "L_SLATE",
            "Runed": "UMBER",
            "Seashell": "L_BLUE"
        }
    }, 
    {
        "type": "Metals",
        "flavors": {
            "Adamant": "L_GREEN",
            "Aluminum": "L_BLUE",
            "Aluminum-Plated": "L_BLUE",
            "Brass": "L_UMBER",
            "Bronze": "L_UMBER",
            "Cast Iron": "L_DARK",
            "Chromium": "WHITE",
            "Copper": "L_UMBER",
            "Copper-Plated": "L_UMBER",
            "Gold": "YELLOW",
            "Gold-Plated": "YELLOW",
            "Iron": "SLATE",
            "Lead": "SLATE",
            "Lead-Plated": "SLATE",
            "Magnesium": "L_SLATE",
            "Mithril": "L_BLUE",
            "Mithril-Plated": "L_BLUE",
            "Molybdenum": "L_SLATE",
            "Nickel": "L_UMBER",
            "Nickel-Plated": "L_UMBER",
            "Pewter": "SLATE",
            "Platinum": "WHITE",
            "Rusty": "RED",
            "Silver": "L_SLATE",
            "Silver-Plated": "L_SLATE",
            "Steel": "L_SLATE",
            "Steel-Plated": "L_SLATE",
            "Tin": "L_SLATE"
        }
    }, 
    {
        "type": "Colors",
        "flavors": {
            "Azure": "L_BLUE",
            "Black": "L_DARK",
            "Blue": "BLUE",
            "Brown": "UMBER",
            "Chartreuse": "L_GREEN",
            "Clear": "WHITE",
            "Crimson": "RED",
            "Cyan": "L_BLUE",
            "Dark Blue": "BLUE",
            "Dark Green": "GREEN",
            "Dark Red": "RED",
            "Gold": "YELLOW",
            "Green": "GREEN",
            "Grey": "SLATE",
            "Icky Green": "GREEN",
            "Indigo": "L_PURPLE",
            "Light Blue": "L_BLUE",
            "Light Brown": "L_UMBER",
            "Light Green": "L_GREEN",
            "Magenta": "RED",
            "Orange": "ORANGE",
            "Pink": "L_RED",
            "Puce": "L_PURPLE",
            "Purple": "L_PURPLE",
            "Red": "RED",
            "Tan": "L_UMBER",
            "Tangerine": "ORANGE",
            "Vermilion": "RED"
        }
    }, 
    {
        "type": "Woods",
        "flavors": {
            "Applewood": "L_UMBER",
            "Alder": "L_UMBER",
            "Ash": "WHITE",
            "Aspen": "WHITE",
            "Balsa": "L_UMBER",
            "Bamboo": "L_UMBER",
            "Banyan": "L_UMBER",
            "Basswood": "WHITE",
            "Beech": "L_UMBER",
            "Birch": "L_UMBER",
            "Bloodwood": "RED",
            "Boxwood": "L_UMBER",
            "Cedar": "L_UMBER",
            "Cherry": "L_UMBER",
            "Cork": "L_UMBER",
            "Cottonwood": "L_UMBER",
            "Cypress": "WHITE",
            "Dogwood": "L_UMBER",
            "Ebony": "UMBER",
            "Elm": "L_UMBER",
            "Eucalyptus": "L_UMBER",
            "Fir": "L_UMBER",
            "Hackberry": "L_UMBER",
            "Hawthorn": "L_UMBER",
            "Hazelnut": "L_UMBER",
            "Hemlock": "L_UMBER",
            "Hickory": "L_UMBER",
            "Holly": "L_UMBER",
            "Ironwood": "UMBER",
            "Lacewood": "L_UMBER",
            "Laurel": "L_UMBER",
            "Locust": "L_UMBER",
            "Mahogany": "UMBER",
            "Maple": "L_UMBER",
            "Mistletoe": "GREEN",
            "Mulberry": "UMBER",
            "Oak": "UMBER",
            "Pine": "UMBER",
            "Plum": "L_UMBER",
            "Poplar": "L_UMBER",
            "Redwood": "RED",
            "Rosewood": "RED",
            "Sandalwood": "L_UMBER",
            "Satinwood": "L_UMBER",
            "Snakewood": "L_UMBER",
            "Spruce": "L_UMBER",
            "Sycamore": "RED",
            "Teak": "L_UMBER",
            "Thorn": "L_UMBER",
            "Walnut": "UMBER",
            "Willow": "L_UMBER",
            "Yew": "L_UMBER"
        }
    }, 
    {
        "type": "Liquids",
        "flavors": {
            "Blue Speckled": "BLUE",
            "Brown Speckled": "UMBER",
            "Bubbling": "L_SLATE",
            "Clotted Red": "RED",
            "Cloudy": "WHITE",
            "Coagulated Crimson": "RED",
            "Copper Speckled": "L_UMBER",
            "Gloopy Green": "GREEN",
            "Gold Speckled": "YELLOW",
            "Green Speckled": "GREEN",
            "Grey Speckled": "SLATE",
            "Hazy": "L_SLATE",
            "Metallic Blue": "BLUE",
            "Metallic Green": "GREEN",
            "Metallic Purple": "L_PURPLE",
            "Metallic Red": "RED",
            "Misty": "L_SLATE",
            "Oily Yellow": "YELLOW",
            "Orange Speckled": "ORANGE",
            "Pink Speckled": "L_RED",
            "Pungent": "L_RED",
            "Purple Speckled": "L_PURPLE",
            "Red Speckled": "RED",
            "Shimmering": "L_PURPLE",
            "Silver Speckled": "L_SLATE",
            "Smoky": "L_DARK",
            "Violet Speckled": "L_PURPLE"
        }
    },
    {
    	"type": "Textures",
    	"flavors": {
    		"Black Spotted": "L_DARK",
    		"Furry": "L_SLATE",
    		"Slimy": "SLATE",
    		"Wrinkled": "UMBER",
    		"White Spotted": "WHITE"
    	}
    }
]
