[
  {
    "affixes": [
      {
        "weighting": 7, 
        "chance": 100, 
        "name": "of Resist Acid"
      }, 
      {
        "weighting": 7, 
        "chance": 100, 
        "name": "of Resist Fire"
      }, 
      {
        "weighting": 7, 
        "chance": 100, 
        "name": "of Resist Lightning"
      }, 
      {
        "weighting": 7, 
        "chance": 100, 
        "name": "of Resist Cold"
      }, 
      {
        "weighting": 4, 
        "chance": 100, 
        "name": "of Durability"
      }, 
      {
        "weighting": 2, 
        "chance": 100, 
        "name": "Reinforced"
      }
    ], 
    "index": 1, 
    "name": "of Resistance", 
    "allocatorRules": [
      {
        "minDepth": 25, 
        "itemType": { "shield": "all", "soft armour": "all", "hard armour": "all" }, 
        "maxDepth": -1
      }
    ], 
    "position": "suffix"
  }, 
  {
    "affixes": [
      {
        "weighting": 1, 
        "chance": 100, 
        "name": "Light"
      }, 
      {
        "weighting": 2, 
        "chance": 100, 
        "name": "Reinforced"
      }, 
      {
        "weighting": 3, 
        "chance": 100, 
        "name": "of Resist Acid"
      }, 
      {
        "weighting": 3, 
        "chance": 100, 
        "name": "of Resist Fire"
      }, 
      {
        "weighting": 3, 
        "chance": 100, 
        "name": "of Resist Lightning"
      }, 
      {
        "weighting": 3, 
        "chance": 100, 
        "name": "of Resist Cold"
      }, 
      {
        "weighting": 1, 
        "chance": 100, 
        "name": "of Durability"
      }, 
      {
        "weighting": 8, 
        "chance": 100, 
        "name": "of Stealth"
      }, 
      {
        "weighting": 8, 
        "chance": 100, 
        "name": "of Warding"
      }
    ], 
    "index": 2, 
    "name": "of Elvenkind", 
    "allocatorRules": [
      {
        "minDepth": 50, 
        "itemType": { "shield": "all", "soft armour": "all", "hard armour": "all" }, 
        "maxDepth": -1
      }
    ], 
    "position": "suffix"
  }, 
  {
    "index": 3, 
    "description": "These faerie boots make you both faster and quieter.", 
    "allocatorRules": [
      {
        "minDepth": 60, 
        "itemType": { "boots": ["& Pair~ of Soft Boots", "& Pair~ of Hard Boots"] }, 
        "maxDepth": -1
      }
    ], 
    "position": "suffix", 
    "affixes": [
      {
        "weighting": 2, 
        "chance": 100, 
        "name": "of Slow Descent"
      }, 
      {
        "weighting": 1, 
        "chance": 100, 
        "name": "of Durability"
      }, 
      {
        "weighting": 4, 
        "chance": 100, 
        "name": "of Stealth"
      }, 
      {
        "weighting": 18, 
        "chance": 100, 
        "name": "of Speed"
      }
    ], 
    "name": "of Elvenkind"
  }, 
  {
    "affixes": [
      {
        "weighting": 2, 
        "chance": 100, 
        "name": "Reinforced"
      }, 
      {
        "weighting": 1, 
        "chance": 100, 
        "name": "Tough"
      }, 
      {
        "weighting": 10, 
        "chance": 100, 
        "name": "of Bodykeeping"
      }, 
      {
        "weighting": 10, 
        "chance": 100, 
        "name": "of Soulkeeping"
      }, 
      {
        "weighting": 3, 
        "chance": 100, 
        "name": "of Vitality"
      }, 
      {
        "weighting": 3, 
        "chance": 100, 
        "name": "of Resist Acid"
      }, 
      {
        "weighting": 3, 
        "chance": 100, 
        "name": "of Resist Fire"
      }, 
      {
        "weighting": 3, 
        "chance": 100, 
        "name": "of Resist Lightning"
      }, 
      {
        "weighting": 3, 
        "chance": 100, 
        "name": "of Resist Cold"
      }, 
      {
        "weighting": 1, 
        "chance": 100, 
        "name": "of Durability"
      }, 
      {
        "weighting": 10, 
        "chance": 100, 
        "name": "of Warding"
      }
    ], 
    "index": 4, 
    "name": "of Permanence", 
    "allocatorRules": [
      {
        "minDepth": 50, 
        "itemType": { "soft armour": ["& Robe~"] }, 
        "maxDepth": -1
      }
    ], 
    "position": "suffix"
  }, 
  {
    "affixes": [
      {
        "weighting": 2, 
        "chance": 100, 
        "name": "Reinforced"
      }, 
      {
        "weighting": 8, 
        "chance": 100, 
        "name": "Spiked"
      }, 
      {
        "weighting": 3, 
        "chance": 100, 
        "name": "Masterwork"
      }, 
      {
        "weighting": 2, 
        "chance": 100, 
        "name": "of Durability"
      }, 
      {
        "weighting": 6, 
        "chance": 100, 
        "name": "of Strength"
      }, 
      {
        "weighting": 6, 
        "chance": 100, 
        "name": "of Hardiness"
      }, 
      {
        "weighting": 0, 
        "chance": 100, 
        "name": "of Infravision"
      }, 
      {
        "weighting": 0, 
        "chance": 100, 
        "name": "of Free Action"
      }
    ], 
    "index": 5, 
    "name": "Dwarven", 
    "allocatorRules": [
      {
        "minDepth": 40, 
        "itemType": { "hard armour": "all", "shield": ["& Small Shield~", "& Large Shield~"] }, 
        "maxDepth": -1
      }
    ], 
    "position": "prefix"
  }, 
  {
    "affixes": [
      {
        "weighting": 1, 
        "chance": 100, 
        "name": "Tough"
      }, 
      {
        "weighting": 2, 
        "chance": 100, 
        "name": "Reinforced"
      }, 
      {
        "weighting": 4, 
        "chance": 100, 
        "name": "of Arcana"
      }, 
      {
        "weighting": 7, 
        "chance": 100, 
        "name": "of Bodykeeping"
      }, 
      {
        "weighting": 6, 
        "chance": 100, 
        "name": "of Vitality"
      }, 
      {
        "weighting": 1, 
        "chance": 100, 
        "name": "of Durability"
      }, 
      {
        "weighting": 7, 
        "chance": 100, 
        "name": "of Warding"
      }
    ], 
    "index": 6, 
    "name": "of Preservation", 
    "allocatorRules": [
      {
        "minDepth": 50, 
        "itemType": { "shield": "all" }, 
        "maxDepth": -1
      }
    ], 
    "position": "suffix"
  }, 
  {
    "affixes": [
      {
        "weighting": 1, 
        "chance": 100, 
        "name": "Tough"
      }, 
      {
        "weighting": 10, 
        "chance": 100, 
        "name": "of Intelligence"
      }, 
      {
        "weighting": 1, 
        "chance": 100, 
        "name": "of Durability"
      }, 
      {
        "weighting": 6, 
        "chance": 100, 
        "name": "of Stealth"
      }, 
      {
        "weighting": 0, 
        "chance": 100, 
        "name": "of Dweomercraft"
      }, 
      {
        "weighting": 6, 
        "chance": 100, 
        "name": "of Sophistication"
      }
    ], 
    "index": 7, 
    "name": "of the Magi", 
    "allocatorRules": [
      {
        "minDepth": 30, 
        "itemType": { "cloak": "all" }, 
        "maxDepth": -1
      }
    ], 
    "position": "suffix"
  }, 
  {
    "affixes": [
      {
        "weighting": 3, 
        "chance": 100, 
        "name": "of Resist Acid"
      }, 
      {
        "weighting": 3, 
        "chance": 100, 
        "name": "of Resist Fire"
      }, 
      {
        "weighting": 3, 
        "chance": 100, 
        "name": "of Resist Lightning"
      }, 
      {
        "weighting": 3, 
        "chance": 100, 
        "name": "of Resist Cold"
      }, 
      {
        "weighting": 8, 
        "chance": 100, 
        "name": "of Intelligence"
      }, 
      {
        "weighting": 1, 
        "chance": 100, 
        "name": "of Durability"
      }, 
      {
        "weighting": 0, 
        "chance": 100, 
        "name": "of Dweomercraft"
      }, 
      {
        "weighting": 4, 
        "chance": 100, 
        "name": "of Sophistication"
      }
    ], 
    "index": 8, 
    "name": "of the Magi", 
    "allocatorRules": [
      {
        "minDepth": 45, 
        "itemType": { "helm": "crown" }, 
        "maxDepth": -1
      }
    ], 
    "position": "suffix"
  }, 
  {
    "affixes": [
      {
        "weighting": 8, 
        "chance": 100, 
        "name": "of Bodykeeping"
      }, 
      {
        "weighting": 8, 
        "chance": 100, 
        "name": "of Free Action"
      }, 
      {
        "weighting": 8, 
        "chance": 100, 
        "name": "of Strength"
      }, 
      {
        "weighting": 8, 
        "chance": 100, 
        "name": "of Agility"
      }, 
      {
        "weighting": 8, 
        "chance": 100, 
        "name": "of Hardiness"
      }, 
      {
        "weighting": 0, 
        "chance": 100, 
        "name": "of Durability"
      }
    ], 
    "index": 9, 
    "name": "of Might", 
    "allocatorRules": [
      {
        "minDepth": 45, 
        "itemType": { "helm": "crown" },
        "maxDepth": -1
      }
    ], 
    "position": "suffix"
  }, 
  {
    "affixes": [
      {
        "weighting": 8, 
        "chance": 100, 
        "name": "of Wisdom"
      }, 
      {
        "weighting": 4, 
        "chance": 100, 
        "name": "of Beauty"
      }, 
      {
        "weighting": 6, 
        "chance": 100, 
        "name": "of Bravery"
      }, 
      {
        "weighting": 1, 
        "chance": 100, 
        "name": "of Durability"
      }, 
      {
        "weighting": 4, 
        "chance": 100, 
        "name": "of Dweomercraft"
      }, 
      {
        "weighting": 2, 
        "chance": 100, 
        "name": "of Intuition"
      }
    ], 
    "index": 10, 
    "name": "of Lordliness", 
    "allocatorRules": [
      {
        "minDepth": 45, 
        "itemType": { "helm": "crown" },
        "maxDepth": -1
      }
    ], 
    "position": "suffix"
  }, 
  {
    "affixes": [
      {
        "weighting": 6, 
        "chance": 100, 
        "name": "of Silence"
      }, 
      {
        "weighting": 6, 
        "chance": 100, 
        "name": "of Certainty"
      }, 
      {
        "weighting": 6, 
        "chance": 100, 
        "name": "of Bravery"
      }, 
      {
        "weighting": 6, 
        "chance": 100, 
        "name": "of Fortitude"
      }
    ], 
    "index": 11, 
    "name": "of Serenity", 
    "allocatorRules": [
      {
        "minDepth": 50, 
        "itemType": { "helm": "crown" }, 
        "maxDepth": -1
      }
    ], 
    "position": "suffix"
  }, 
  {
    "affixes": [
      {
        "weighting": 8, 
        "chance": 100, 
        "name": "of Light"
      }, 
      {
        "weighting": 9, 
        "chance": 100, 
        "name": "of Darkness"
      }, 
      {
        "weighting": 5, 
        "chance": 100, 
        "name": "of Seeing"
      }, 
      {
        "weighting": 4, 
        "chance": 100, 
        "name": "of Observation"
      }, 
      {
        "weighting": 5, 
        "chance": 100, 
        "name": "of Brightness"
      }
    ], 
    "index": 12, 
    "name": "of Night and Day", 
    "allocatorRules": [
      {
        "minDepth": 50, 
        "itemType": { "helm": "crown" },
        "maxDepth": -1
      }
    ], 
    "position": "suffix"
  }, 
  {
    "affixes": [
      {
        "weighting": 4, 
        "chance": 100, 
        "name": "of Slaying"
      }, 
      {
        "weighting": [4, 0],
        "chance": [100, 100],
        "name": "of Strength"
      }
    ], 
    "index": 13, 
    "name": "of Power", 
    "allocatorRules": [
      {
        "minDepth": 30, 
        "itemType": {
          "gloves": [
            "all"
          ]
        }, 
        "maxDepth": -1
      }
    ], 
    "position": "suffix"
  }, 
  {
    "affixes": [
      {
        "weighting": 5, 
        "chance": 100, 
        "name": "of Slaying"
      }, 
      {
        "weighting": 2, 
        "chance": 100, 
        "name": "of Slow Descent"
      }, 
      {
        "weighting": 7, 
        "chance": 100, 
        "name": "of Free Action"
      }, 
      {
        "weighting": [8, 0], 
        "chance": [100, 100],
        "name": "of Agility"
      }, 
      {
        "weighting": 3, 
        "chance": 100, 
        "name": "of Searching"
      }
    ], 
    "index": 14, 
    "name": "of Thievery", 
    "allocatorRules": [
      {
        "minDepth": 40, 
        "itemType": { "gloves": ["& Set~ of Gloves"] }, 
        "maxDepth": -1
      }
    ], 
    "position": "suffix"
  }, 
  {
    "affixes": [
      {
        "weighting": 8, 
        "chance": 100, 
        "name": "of Slaying"
      }, 
      {
        "weighting": 8, 
        "chance": 100, 
        "name": "of Strength"
      }, 
      {
        "weighting": 8, 
        "chance": 100, 
        "name": "of Hardiness"
      }
    ], 
    "index": 15, 
    "name": "of Combat", 
    "allocatorRules": [
      {
        "minDepth": 50, 
        "itemType": { "gloves": ["all except", "& Set~ of Gloves"] }, 
        "maxDepth": -1
      }
    ], 
    "position": "suffix"
  }, 
  {
    "affixes": [
      {
        "weighting": 0, 
        "chance": 100, 
        "name": "Tough"
      }, 
      {
        "weighting": 2, 
        "chance": 100, 
        "name": "Reinforced"
      }, 
      {
        "weighting": 10, 
        "chance": 100, 
        "name": "of Stealth"
      }, 
      {
        "weighting": 1, 
        "chance": 100, 
        "name": "of Durability"
      }, 
      {
        "weighting": 12, 
        "chance": 100, 
        "name": "of Warding"
      }
    ], 
    "index": 16, 
    "name": "of Aman", 
    "allocatorRules": [
      {
        "minDepth": 30, 
        "itemType": {
          "cloak": [
            "all"
          ]
        }, 
        "maxDepth": -1
      }
    ], 
    "position": "suffix"
  }, 
  {
    "affixes": [
      {
        "weighting": [1, 0, 0], 
        "chance": [100, 66, 33], 
        "name": "Journeyman's"
      }, 
      {
        "weighting": 1, 
        "chance": 0, 
        "name": "Silver"
      }, 
      {
        "weighting": 1, 
        "chance": 0, 
        "name": "Iron"
      }, 
      {
        "weighting": 6, 
        "chance": 100, 
        "name": "of Slay Demon"
      }, 
      {
        "weighting": 6, 
        "chance": 100, 
        "name": "of Slay Evil"
      }, 
      {
        "weighting": 6, 
        "chance": 100, 
        "name": "of Slay Undead"
      }, 
      {
        "weighting": 1, 
        "chance": 100, 
        "name": "of Piety"
      }, 
      {
        "weighting": 6, 
        "chance": 100, 
        "name": "of Wisdom"
      }, 
      {
        "weighting": 4, 
        "chance": 100, 
        "name": "of Bravery"
      }, 
      {
        "weighting": 2, 
        "chance": 100, 
        "name": "of Observation"
      }, 
      {
        "weighting": 0, 
        "chance": 100, 
        "name": "of Support"
      }, 
      {
        "weighting": 1, 
        "chance": 0, 
        "name": "of Balance"
      }, 
      {
        "weighting": 1, 
        "chance": 100, 
        "name": "of Force"
      }, 
      {
        "weighting": 1, 
        "chance": 0, 
        "name": "Elven"
      }, 
      {
        "weighting": 1, 
        "chance": 0, 
        "name": "Dwarven"
      }, 
      {
        "weighting": 1, 
        "chance": 0, 
        "name": "Trollish"
      }, 
      {
        "weighting": 1, 
        "chance": 0, 
        "name": "Dunadan"
      }, 
      {
        "weighting": 1, 
        "chance": 0, 
        "name": "Orcish"
      }, 
      {
        "weighting": 1, 
        "chance": 0, 
        "name": "Giant"
      }, 
      {
        "weighting": 1, 
        "chance": 0, 
        "name": "Runed"
      }, 
      {
        "weighting": 2, 
        "chance": 0, 
        "name": "Majestic"
      }, 
      {
        "weighting": 1, 
        "chance": 0, 
        "name": "Lead-Filled"
      }, 
      {
        "weighting": 1, 
        "chance": 0, 
        "name": "Dragonbone"
      }, 
      {
        "weighting": 1, 
        "chance": 0, 
        "name": "Crystal"
      }, 
      {
        "weighting": 1, 
        "chance": 0, 
        "name": "Diamond"
      }, 
      {
        "weighting": 1, 
        "chance": 0, 
        "name": "Blackrock"
      }, 
      {
        "weighting": 1, 
        "chance": 0, 
        "name": "Sharp"
      }, 
      {
        "weighting": 1, 
        "chance": 0, 
        "name": "Keen"
      }, 
      {
        "weighting": 1, 
        "chance": 0, 
        "name": "Vicious"
      }, 
      {
        "weighting": 1, 
        "chance": 0, 
        "name": "Brutal"
      }, 
      {
        "weighting": 1, 
        "chance": 0, 
        "name": "of Slicing"
      }, 
      {
        "weighting": 1, 
        "chance": 0, 
        "name": "of Chaos"
      }, 
      {
        "weighting": 1, 
        "chance": 0, 
        "name": "of Disruption"
      }
    ], 
    "index": 17, 
    "name": "(Holy Avenger)", 
    "allocatorRules": [
      {
        "minDepth": 20, 
        "itemType": { "hafted": "all", "polearm": "all", "sword": "all" },
        "maxDepth": -1
      }
    ], 
    "position": "suffix"
  }, 
  {
    "affixes": [
      {
        "weighting": 1, 
        "chance": 100, 
        "name": "Journeyman's"
      }, 
      {
        "weighting": 10, 
        "chance": 100, 
        "name": "of Parrying"
      }, 
      {
        "weighting": 5, 
        "chance": 100, 
        "name": "of Free Action"
      }, 
      {
        "weighting": 3, 
        "chance": 100, 
        "name": "of Observation"
      }, 
      {
        "weighting": 0, 
        "chance": 100, 
        "name": "of Slow Descent"
      }, 
      {
        "weighting": 5, 
        "chance": 100, 
        "name": "of Regeneration"
      }, 
      {
        "weighting": 0, 
        "chance": 100, 
        "name": "of Resist Acid"
      }, 
      {
        "weighting": 0, 
        "chance": 100, 
        "name": "of Resist Fire"
      }, 
      {
        "weighting": 0, 
        "chance": 100, 
        "name": "of Resist Lightning"
      }, 
      {
        "weighting": 0, 
        "chance": 100, 
        "name": "of Resist Cold"
      }, 
      {
        "weighting": 1, 
        "chance": 100, 
        "name": "of Durability"
      }, 
      {
        "weighting": 0, 
        "chance": 100, 
        "name": "of Stealth"
      }, 
      {
        "weighting": 0, 
        "chance": 100, 
        "name": "of Support"
      }, 
      {
        "weighting": 1, 
        "chance": 0, 
        "name": "of Balance"
      }, 
      {
        "weighting": 1, 
        "chance": 0, 
        "name": "of Force"
      }, 
      {
        "weighting": 1, 
        "chance": 0, 
        "name": "Elven"
      }, 
      {
        "weighting": 1, 
        "chance": 0, 
        "name": "Dwarven"
      }, 
      {
        "weighting": 1, 
        "chance": 0, 
        "name": "Trollish"
      }, 
      {
        "weighting": 1, 
        "chance": 0, 
        "name": "Dunadan"
      }, 
      {
        "weighting": 1, 
        "chance": 0, 
        "name": "Orcish"
      }, 
      {
        "weighting": 1, 
        "chance": 0, 
        "name": "Giant"
      }, 
      {
        "weighting": 1, 
        "chance": 0, 
        "name": "Runed"
      }, 
      {
        "weighting": 2, 
        "chance": 0, 
        "name": "Majestic"
      }, 
      {
        "weighting": 1, 
        "chance": 0, 
        "name": "Lead-Filled"
      }, 
      {
        "weighting": 1, 
        "chance": 0, 
        "name": "Dragonbone"
      }, 
      {
        "weighting": 1, 
        "chance": 0, 
        "name": "Crystal"
      }, 
      {
        "weighting": 1, 
        "chance": 0, 
        "name": "Diamond"
      }, 
      {
        "weighting": 1, 
        "chance": 0, 
        "name": "Blackrock"
      }
    ], 
    "index": 18, 
    "name": "(Defender)", 
    "allocatorRules": [
      {
        "minDepth": 20, 
        "itemType": { "hafted": "all", "polearm": "all", "sword": "all" },
        "maxDepth": -1
      }
    ], 
    "position": "suffix"
  }, 
  {
    "affixes": [
      {
        "weighting": [0, 0, 0], 
        "chance": [100, 66, 33], 
        "name": "Journeyman's"
      }, 
      {
        "weighting": 1, 
        "chance": 100, 
        "name": "Iron"
      }, 
      {
        "weighting": 5, 
        "chance": 100, 
        "name": "of Slay Demon"
      }, 
      {
        "weighting": 5, 
        "chance": 100, 
        "name": "of Slay Orc"
      }, 
      {
        "weighting": 5, 
        "chance": 100, 
        "name": "of Slay Troll"
      }, 
      {
        "weighting": 5, 
        "chance": 100, 
        "name": "of Slay Dragon"
      }, 
      {
        "weighting": 0, 
        "chance": 100, 
        "name": "of Brightness"
      }, 
      {
        "weighting": 0, 
        "chance": 100, 
        "name": "of Darkness"
      }, 
      {
        "weighting": 3, 
        "chance": 100, 
        "name": "of Observation"
      }, 
      {
        "weighting": 5, 
        "chance": 100, 
        "name": "of Free Action"
      }, 
      {
        "weighting": 1, 
        "chance": 100, 
        "name": "of Durability"
      }, 
      {
        "weighting": 0, 
        "chance": 100, 
        "name": "of Dweomercraft"
      }, 
      {
        "weighting": 1, 
        "chance": 100, 
        "name": "of Balance"
      }, 
      {
        "weighting": 1, 
        "chance": 100, 
        "name": "of Force"
      }, 
      {
        "weighting": 1, 
        "chance": 0, 
        "name": "Elven"
      }, 
      {
        "weighting": 1, 
        "chance": 0, 
        "name": "Dwarven"
      }, 
      {
        "weighting": 1, 
        "chance": 0, 
        "name": "Trollish"
      }, 
      {
        "weighting": 1, 
        "chance": 0, 
        "name": "Dunadan"
      }, 
      {
        "weighting": 1, 
        "chance": 0, 
        "name": "Orcish"
      }, 
      {
        "weighting": 1, 
        "chance": 0, 
        "name": "Giant"
      }, 
      {
        "weighting": 1, 
        "chance": 0, 
        "name": "Runed"
      }, 
      {
        "weighting": 2, 
        "chance": 0, 
        "name": "Majestic"
      }, 
      {
        "weighting": 1, 
        "chance": 0, 
        "name": "Lead-Filled"
      }, 
      {
        "weighting": 1, 
        "chance": 0, 
        "name": "Dragonbone"
      }, 
      {
        "weighting": 1, 
        "chance": 0, 
        "name": "Crystal"
      }, 
      {
        "weighting": 1, 
        "chance": 0, 
        "name": "Diamond"
      }, 
      {
        "weighting": 1, 
        "chance": 0, 
        "name": "Blackrock"
      }, 
      {
        "weighting": 1, 
        "chance": 0, 
        "name": "Sharp"
      }, 
      {
        "weighting": 1, 
        "chance": 0, 
        "name": "Keen"
      }, 
      {
        "weighting": 1, 
        "chance": 0, 
        "name": "Vicious"
      }, 
      {
        "weighting": 1, 
        "chance": 0, 
        "name": "Brutal"
      }, 
      {
        "weighting": 1, 
        "chance": 0, 
        "name": "of Slicing"
      }, 
      {
        "weighting": 1, 
        "chance": 0, 
        "name": "of Chaos"
      }, 
      {
        "weighting": 1, 
        "chance": 0, 
        "name": "of Disruption"
      }
    ], 
    "index": 19, 
    "name": "of Gondolin", 
    "allocatorRules": [
      {
        "minDepth": 30, 
        "itemType": { "hafted": "all", "polearm": "all", "sword": "all" },
        "maxDepth": -1
      }
    ], 
    "position": "suffix"
  }, 
  {
    "affixes": [
      {
        "weighting": [0, 0, 0], 
        "chance": [100, 66, 33], 
        "name": "Journeyman's"
      }, 
      {
        "weighting": 5, 
        "chance": 100, 
        "name": "of Slay Orc"
      }, 
      {
        "weighting": 5, 
        "chance": 100, 
        "name": "of Slay Troll"
      }, 
      {
        "weighting": 5, 
        "chance": 100, 
        "name": "of Slay Giant"
      }, 
      {
        "weighting": 5, 
        "chance": 100, 
        "name": "of Free Action"
      }, 
      {
        "weighting": 5, 
        "chance": 100, 
        "name": "of Observation"
      }, 
      {
        "weighting": 5, 
        "chance": 100, 
        "name": "of Strength"
      }, 
      {
        "weighting": 5, 
        "chance": 100, 
        "name": "of Agility"
      }, 
      {
        "weighting": 5, 
        "chance": 100, 
        "name": "of Hardiness"
      }, 
      {
        "weighting": 1, 
        "chance": 100, 
        "name": "of Balance"
      }, 
      {
        "weighting": 1, 
        "chance": 100, 
        "name": "of Force"
      }, 
      {
        "weighting": 1, 
        "chance": 0, 
        "name": "Elven"
      }, 
      {
        "weighting": 1, 
        "chance": 0, 
        "name": "Dwarven"
      }, 
      {
        "weighting": 1, 
        "chance": 0, 
        "name": "Trollish"
      }, 
      {
        "weighting": 1, 
        "chance": 0, 
        "name": "Dunadan"
      }, 
      {
        "weighting": 1, 
        "chance": 0, 
        "name": "Orcish"
      }, 
      {
        "weighting": 1, 
        "chance": 0, 
        "name": "Giant"
      }, 
      {
        "weighting": 1, 
        "chance": 0, 
        "name": "Runed"
      }, 
      {
        "weighting": 2, 
        "chance": 0, 
        "name": "Majestic"
      }, 
      {
        "weighting": 1, 
        "chance": 0, 
        "name": "Lead-Filled"
      }, 
      {
        "weighting": 1, 
        "chance": 0, 
        "name": "Dragonbone"
      }, 
      {
        "weighting": 1, 
        "chance": 0, 
        "name": "Crystal"
      }, 
      {
        "weighting": 1, 
        "chance": 0, 
        "name": "Diamond"
      }, 
      {
        "weighting": 1, 
        "chance": 0, 
        "name": "Blackrock"
      }, 
      {
        "weighting": 1, 
        "chance": 0, 
        "name": "Sharp"
      }, 
      {
        "weighting": 1, 
        "chance": 0, 
        "name": "Keen"
      }, 
      {
        "weighting": 1, 
        "chance": 0, 
        "name": "Vicious"
      }, 
      {
        "weighting": 1, 
        "chance": 0, 
        "name": "Brutal"
      }, 
      {
        "weighting": 1, 
        "chance": 0, 
        "name": "of Slicing"
      }, 
      {
        "weighting": 1, 
        "chance": 0, 
        "name": "of Chaos"
      }, 
      {
        "weighting": 1, 
        "chance": 0, 
        "name": "of Disruption"
      }
    ], 
    "index": 20, 
    "name": "of Westernesse", 
    "allocatorRules": [
      {
        "minDepth": 30, 
        "itemType": { "hafted": "all", "polearm": "all", "sword": "all" },
        "maxDepth": -1
      }
    ], 
    "position": "suffix"
  }, 
  {
    "affixes": [
      {
        "weighting": [1, 0, 0], 
        "chance": [100, 100, 50], 
        "name": "Journeyman's"
      },
      {
        "weighting": 0, 
        "chance": 50, 
        "name": "Journeyman's"
      }, 
      {
        "weighting": 0, 
        "chance": 100, 
        "name": "of Aggravation"
      }, 
      {
        "weighting": 8, 
        "chance": 100, 
        "name": "of Bravery"
      }, 
      {
        "weighting": 1, 
        "chance": 100, 
        "name": "of Durability"
      }, 
      {
        "weighting": 0, 
        "chance": 100, 
        "name": "of Strength"
      }, 
      {
        "weighting": 8, 
        "chance": 100, 
        "name": "of Strength"
      }, 
      {
        "weighting": 5, 
        "chance": 100, 
        "name": "of Force"
      }, 
      {
        "weighting": 5, 
        "chance": 100, 
        "name": "of Balance"
      }, 
      {
        "weighting": 1, 
        "chance": 0, 
        "name": "Elven"
      }, 
      {
        "weighting": 1, 
        "chance": 0, 
        "name": "Dwarven"
      }, 
      {
        "weighting": 1, 
        "chance": 0, 
        "name": "Trollish"
      }, 
      {
        "weighting": 1, 
        "chance": 0, 
        "name": "Dunadan"
      }, 
      {
        "weighting": 1, 
        "chance": 0, 
        "name": "Orcish"
      }, 
      {
        "weighting": 1, 
        "chance": 0, 
        "name": "Giant"
      }, 
      {
        "weighting": 1, 
        "chance": 0, 
        "name": "Runed"
      }, 
      {
        "weighting": 2, 
        "chance": 0, 
        "name": "Majestic"
      }, 
      {
        "weighting": 1, 
        "chance": 0, 
        "name": "Lead-Filled"
      }, 
      {
        "weighting": 1, 
        "chance": 0, 
        "name": "Dragonbone"
      }, 
      {
        "weighting": 1, 
        "chance": 0, 
        "name": "Crystal"
      }, 
      {
        "weighting": 1, 
        "chance": 0, 
        "name": "Diamond"
      }, 
      {
        "weighting": 1, 
        "chance": 0, 
        "name": "Blackrock"
      }, 
      {
        "weighting": 1, 
        "chance": 0, 
        "name": "Sharp"
      }, 
      {
        "weighting": 1, 
        "chance": 0, 
        "name": "Keen"
      }, 
      {
        "weighting": 1, 
        "chance": 0, 
        "name": "Vicious"
      }, 
      {
        "weighting": 1, 
        "chance": 0, 
        "name": "Brutal"
      }, 
      {
        "weighting": 1, 
        "chance": 0, 
        "name": "of Slicing"
      }, 
      {
        "weighting": 1, 
        "chance": 0, 
        "name": "of Chaos"
      }, 
      {
        "weighting": 1, 
        "chance": 0, 
        "name": "of Disruption"
      }
    ], 
    "index": 21, 
    "name": "of Fury", 
    "allocatorRules": [
      {
        "minDepth": 1, 
        "itemType": { "hafted": ["& War Hammer~", "& Maul~", "& Great Hammer~", "& Two-Handed Great Flail~"],
                      "sword": ["& Executioner's Sword~", "& Zweihander~", "& Katana~"],
                      "polearm": ["all except", "& Spear~", "& Awl-Pike~", "& Trident~", "& Halberd~", "& Pike~"] }, 
        "maxDepth": -1
      }
    ], 
    "position": "suffix"
  }, 
  {
    "affixes": [
      {
        "weighting": [0, 0], 
        "chance": [66, 33], 
        "name": "Journeyman's"
      }, 
      {
        "weighting": 10, 
        "chance": 100, 
        "name": "of Slay Animal"
      }, 
      {
        "weighting": 7, 
        "chance": 100, 
        "name": "of Slow Digestion"
      }, 
      {
        "weighting": 7, 
        "chance": 100, 
        "name": "of Intelligence"
      }, 
      {
        "weighting": 1, 
        "chance": 0, 
        "name": "Elven"
      }, 
      {
        "weighting": 1, 
        "chance": 0, 
        "name": "Dwarven"
      }, 
      {
        "weighting": 1, 
        "chance": 0, 
        "name": "Trollish"
      }, 
      {
        "weighting": 1, 
        "chance": 0, 
        "name": "Dunadan"
      }, 
      {
        "weighting": 1, 
        "chance": 0, 
        "name": "Orcish"
      }, 
      {
        "weighting": 1, 
        "chance": 0, 
        "name": "Giant"
      }, 
      {
        "weighting": 1, 
        "chance": 0, 
        "name": "Runed"
      }, 
      {
        "weighting": 2, 
        "chance": 0, 
        "name": "Majestic"
      }, 
      {
        "weighting": 1, 
        "chance": 0, 
        "name": "Lead-Filled"
      }, 
      {
        "weighting": 1, 
        "chance": 0, 
        "name": "Dragonbone"
      }, 
      {
        "weighting": 1, 
        "chance": 0, 
        "name": "Crystal"
      }, 
      {
        "weighting": 1, 
        "chance": 0, 
        "name": "Diamond"
      }, 
      {
        "weighting": 1, 
        "chance": 0, 
        "name": "Blackrock"
      }, 
      {
        "weighting": 1, 
        "chance": 0, 
        "name": "Sharp"
      }, 
      {
        "weighting": 1, 
        "chance": 0, 
        "name": "Keen"
      }, 
      {
        "weighting": 1, 
        "chance": 0, 
        "name": "Vicious"
      }, 
      {
        "weighting": 1, 
        "chance": 0, 
        "name": "Brutal"
      }, 
      {
        "weighting": 1, 
        "chance": 0, 
        "name": "of Slicing"
      }, 
      {
        "weighting": 1, 
        "chance": 0, 
        "name": "of Chaos"
      }, 
      {
        "weighting": 1, 
        "chance": 0, 
        "name": "of Disruption"
      }, 
      {
        "weighting": 1, 
        "chance": 0, 
        "name": "of Balance"
      }, 
      {
        "weighting": 1, 
        "chance": 0, 
        "name": "of Force"
      }
    ], 
    "index": 22, 
    "name": "of *Slay Animal*", 
    "allocatorRules": [
      {
        "minDepth": 20, 
        "itemType": { "hafted": "all", "polearm": "all", "sword": "all" },
        "maxDepth": 80
      }
    ], 
    "position": "suffix"
  }, 
  {
    "affixes": [
      {
        "weighting": [0, 0], 
        "chance": [66, 33], 
        "name": "Journeyman's"
      }, 
      {
        "weighting": 10, 
        "chance": 100, 
        "name": "of Slay Evil"
      }, 
      {
        "weighting": 7, 
        "chance": 100, 
        "name": "of Piety"
      }, 
      {
        "weighting": 7, 
        "chance": 100, 
        "name": "of Wisdom"
      }, 
      {
        "weighting": 0, 
        "chance": 100, 
        "name": "of Dweomercraft"
      }, 
      {
        "weighting": 1, 
        "chance": 0, 
        "name": "Elven"
      }, 
      {
        "weighting": 1, 
        "chance": 0, 
        "name": "Dwarven"
      }, 
      {
        "weighting": 1, 
        "chance": 0, 
        "name": "Trollish"
      }, 
      {
        "weighting": 1, 
        "chance": 0, 
        "name": "Dunadan"
      }, 
      {
        "weighting": 1, 
        "chance": 0, 
        "name": "Orcish"
      }, 
      {
        "weighting": 1, 
        "chance": 0, 
        "name": "Giant"
      }, 
      {
        "weighting": 1, 
        "chance": 0, 
        "name": "Runed"
      }, 
      {
        "weighting": 2, 
        "chance": 0, 
        "name": "Majestic"
      }, 
      {
        "weighting": 1, 
        "chance": 0, 
        "name": "Lead-Filled"
      }, 
      {
        "weighting": 1, 
        "chance": 0, 
        "name": "Dragonbone"
      }, 
      {
        "weighting": 1, 
        "chance": 0, 
        "name": "Crystal"
      }, 
      {
        "weighting": 1, 
        "chance": 0, 
        "name": "Diamond"
      }, 
      {
        "weighting": 1, 
        "chance": 0, 
        "name": "Blackrock"
      }, 
      {
        "weighting": 1, 
        "chance": 0, 
        "name": "Sharp"
      }, 
      {
        "weighting": 1, 
        "chance": 0, 
        "name": "Keen"
      }, 
      {
        "weighting": 1, 
        "chance": 0, 
        "name": "Vicious"
      }, 
      {
        "weighting": 1, 
        "chance": 0, 
        "name": "Brutal"
      }, 
      {
        "weighting": 1, 
        "chance": 0, 
        "name": "of Slicing"
      }, 
      {
        "weighting": 1, 
        "chance": 0, 
        "name": "of Chaos"
      }, 
      {
        "weighting": 1, 
        "chance": 0, 
        "name": "of Disruption"
      }, 
      {
        "weighting": 1, 
        "chance": 0, 
        "name": "of Balance"
      }, 
      {
        "weighting": 1, 
        "chance": 0, 
        "name": "of Force"
      }
    ], 
    "index": 23, 
    "name": "of *Slay Evil*", 
    "allocatorRules": [
      {
        "minDepth": 20, 
        "itemType": { "hafted": "all", "polearm": "all", "sword": "all" },
        "maxDepth": -1
      }
    ], 
    "position": "suffix"
  }, 
  {
    "affixes": [
      {
        "weighting": [0, 0], 
        "chance": [66, 33], 
        "name": "Journeyman's"
      }, 
      {
        "weighting": 1, 
        "chance": 100, 
        "name": "Silver"
      }, 
      {
        "weighting": 5, 
        "chance": 100, 
        "name": "of Slay Undead"
      }, 
      {
        "weighting": 9, 
        "chance": 100, 
        "name": "of Nightbane"
      }, 
      {
        "weighting": 5, 
        "chance": 100, 
        "name": "of Observation"
      }, 
      {
        "weighting": 5, 
        "chance": 100, 
        "name": "of Wisdom"
      }, 
      {
        "weighting": 1, 
        "chance": 0, 
        "name": "Elven"
      }, 
      {
        "weighting": 1, 
        "chance": 0, 
        "name": "Dwarven"
      }, 
      {
        "weighting": 1, 
        "chance": 0, 
        "name": "Trollish"
      }, 
      {
        "weighting": 1, 
        "chance": 0, 
        "name": "Dunadan"
      }, 
      {
        "weighting": 1, 
        "chance": 0, 
        "name": "Orcish"
      }, 
      {
        "weighting": 1, 
        "chance": 0, 
        "name": "Giant"
      }, 
      {
        "weighting": 1, 
        "chance": 0, 
        "name": "Runed"
      }, 
      {
        "weighting": 2, 
        "chance": 0, 
        "name": "Majestic"
      }, 
      {
        "weighting": 1, 
        "chance": 0, 
        "name": "Lead-Filled"
      }, 
      {
        "weighting": 1, 
        "chance": 0, 
        "name": "Dragonbone"
      }, 
      {
        "weighting": 1, 
        "chance": 0, 
        "name": "Crystal"
      }, 
      {
        "weighting": 1, 
        "chance": 0, 
        "name": "Diamond"
      }, 
      {
        "weighting": 1, 
        "chance": 0, 
        "name": "Blackrock"
      }, 
      {
        "weighting": 1, 
        "chance": 0, 
        "name": "Sharp"
      }, 
      {
        "weighting": 1, 
        "chance": 0, 
        "name": "Keen"
      }, 
      {
        "weighting": 1, 
        "chance": 0, 
        "name": "Vicious"
      }, 
      {
        "weighting": 1, 
        "chance": 0, 
        "name": "Brutal"
      }, 
      {
        "weighting": 1, 
        "chance": 0, 
        "name": "of Slicing"
      }, 
      {
        "weighting": 1, 
        "chance": 0, 
        "name": "of Chaos"
      }, 
      {
        "weighting": 1, 
        "chance": 0, 
        "name": "of Disruption"
      }, 
      {
        "weighting": 1, 
        "chance": 0, 
        "name": "of Balance"
      }, 
      {
        "weighting": 1, 
        "chance": 0, 
        "name": "of Force"
      }
    ], 
    "index": 24, 
    "name": "of *Slay Undead*", 
    "allocatorRules": [
      {
        "minDepth": 62, 
        "itemType": { "hafted": "all", "polearm": "all", "sword": "all" },
        "maxDepth": -1
      }
    ], 
    "position": "suffix"
  }, 
  {
    "affixes": [
      {
        "weighting": [0, 0], 
        "chance": [66, 33], 
        "name": "Journeyman's"
      }, 
      {
        "weighting": 1, 
        "chance": 100, 
        "name": "Iron"
      }, 
      {
        "weighting": 5, 
        "chance": 100, 
        "name": "of Slay Demon"
      }, 
      {
        "weighting": 9, 
        "chance": 100, 
        "name": "of Demonbane"
      }, 
      {
        "weighting": 5, 
        "chance": 100, 
        "name": "of Resist Fire"
      }, 
      {
        "weighting": 5, 
        "chance": 100, 
        "name": "of Intelligence"
      }, 
      {
        "weighting": 1, 
        "chance": 0, 
        "name": "Elven"
      }, 
      {
        "weighting": 1, 
        "chance": 0, 
        "name": "Dwarven"
      }, 
      {
        "weighting": 1, 
        "chance": 0, 
        "name": "Trollish"
      }, 
      {
        "weighting": 1, 
        "chance": 0, 
        "name": "Dunadan"
      }, 
      {
        "weighting": 1, 
        "chance": 0, 
        "name": "Orcish"
      }, 
      {
        "weighting": 1, 
        "chance": 0, 
        "name": "Giant"
      }, 
      {
        "weighting": 1, 
        "chance": 0, 
        "name": "Runed"
      }, 
      {
        "weighting": 2, 
        "chance": 0, 
        "name": "Majestic"
      }, 
      {
        "weighting": 1, 
        "chance": 0, 
        "name": "Lead-Filled"
      }, 
      {
        "weighting": 1, 
        "chance": 0, 
        "name": "Dragonbone"
      }, 
      {
        "weighting": 1, 
        "chance": 0, 
        "name": "Crystal"
      }, 
      {
        "weighting": 1, 
        "chance": 0, 
        "name": "Diamond"
      }, 
      {
        "weighting": 1, 
        "chance": 0, 
        "name": "Blackrock"
      }, 
      {
        "weighting": 1, 
        "chance": 0, 
        "name": "Sharp"
      }, 
      {
        "weighting": 1, 
        "chance": 0, 
        "name": "Keen"
      }, 
      {
        "weighting": 1, 
        "chance": 0, 
        "name": "Vicious"
      }, 
      {
        "weighting": 1, 
        "chance": 0, 
        "name": "Brutal"
      }, 
      {
        "weighting": 1, 
        "chance": 0, 
        "name": "of Slicing"
      }, 
      {
        "weighting": 1, 
        "chance": 0, 
        "name": "of Chaos"
      }, 
      {
        "weighting": 1, 
        "chance": 0, 
        "name": "of Disruption"
      }, 
      {
        "weighting": 1, 
        "chance": 0, 
        "name": "of Balance"
      }, 
      {
        "weighting": 1, 
        "chance": 0, 
        "name": "of Force"
      }
    ], 
    "index": 25, 
    "name": "of *Slay Demon*", 
    "allocatorRules": [
      {
        "minDepth": 67, 
        "itemType": { "hafted": "all", "polearm": "all", "sword": "all" },
        "maxDepth": -1
      }
    ], 
    "position": "suffix"
  }, 
  {
    "affixes": [
      {
        "weighting": [0, 0], 
        "chance": [66, 33], 
        "name": "Journeyman's"
      }, 
      {
        "weighting": 15, 
        "chance": 100, 
        "name": "of Slay Orc"
      }, 
      {
        "weighting": 5, 
        "chance": 100, 
        "name": "of Adroitness"
      }, 
      {
        "weighting": 5, 
        "chance": 100, 
        "name": "of Agility"
      }, 
      {
        "weighting": 1, 
        "chance": 0, 
        "name": "Elven"
      }, 
      {
        "weighting": 1, 
        "chance": 0, 
        "name": "Dwarven"
      }, 
      {
        "weighting": 1, 
        "chance": 0, 
        "name": "Trollish"
      }, 
      {
        "weighting": 1, 
        "chance": 0, 
        "name": "Dunadan"
      }, 
      {
        "weighting": 1, 
        "chance": 0, 
        "name": "Orcish"
      }, 
      {
        "weighting": 1, 
        "chance": 0, 
        "name": "Giant"
      }, 
      {
        "weighting": 1, 
        "chance": 0, 
        "name": "Runed"
      }, 
      {
        "weighting": 2, 
        "chance": 0, 
        "name": "Majestic"
      }, 
      {
        "weighting": 1, 
        "chance": 0, 
        "name": "Lead-Filled"
      }, 
      {
        "weighting": 1, 
        "chance": 0, 
        "name": "Dragonbone"
      }, 
      {
        "weighting": 1, 
        "chance": 0, 
        "name": "Crystal"
      }, 
      {
        "weighting": 1, 
        "chance": 0, 
        "name": "Diamond"
      }, 
      {
        "weighting": 1, 
        "chance": 0, 
        "name": "Blackrock"
      }, 
      {
        "weighting": 1, 
        "chance": 0, 
        "name": "Sharp"
      }, 
      {
        "weighting": 1, 
        "chance": 0, 
        "name": "Keen"
      }, 
      {
        "weighting": 1, 
        "chance": 0, 
        "name": "Vicious"
      }, 
      {
        "weighting": 1, 
        "chance": 0, 
        "name": "Brutal"
      }, 
      {
        "weighting": 1, 
        "chance": 0, 
        "name": "of Slicing"
      }, 
      {
        "weighting": 1, 
        "chance": 0, 
        "name": "of Chaos"
      }, 
      {
        "weighting": 1, 
        "chance": 0, 
        "name": "of Disruption"
      }, 
      {
        "weighting": 1, 
        "chance": 0, 
        "name": "of Balance"
      }, 
      {
        "weighting": 1, 
        "chance": 0, 
        "name": "of Force"
      }
    ], 
    "index": 26, 
    "name": "of *Slay Orc*", 
    "allocatorRules": [
      {
        "minDepth": 10, 
        "itemType": { "hafted": "all", "polearm": "all", "sword": "all" },
        "maxDepth": 44
      }
    ], 
    "position": "suffix"
  }, 
  {
    "affixes": [
      {
        "weighting": [0, 0], 
        "chance": [66, 33], 
        "name": "Journeyman's"
      }, 
      {
        "weighting": 15, 
        "chance": 100, 
        "name": "of Slay Troll"
      }, 
      {
        "weighting": 5, 
        "chance": 100, 
        "name": "of Regeneration"
      }, 
      {
        "weighting": 5, 
        "chance": 100, 
        "name": "of Strength"
      }, 
      {
        "weighting": 1, 
        "chance": 0, 
        "name": "Elven"
      }, 
      {
        "weighting": 1, 
        "chance": 0, 
        "name": "Dwarven"
      }, 
      {
        "weighting": 1, 
        "chance": 0, 
        "name": "Trollish"
      }, 
      {
        "weighting": 1, 
        "chance": 0, 
        "name": "Dunadan"
      }, 
      {
        "weighting": 1, 
        "chance": 0, 
        "name": "Orcish"
      }, 
      {
        "weighting": 1, 
        "chance": 0, 
        "name": "Giant"
      }, 
      {
        "weighting": 1, 
        "chance": 0, 
        "name": "Runed"
      }, 
      {
        "weighting": 2, 
        "chance": 0, 
        "name": "Majestic"
      }, 
      {
        "weighting": 1, 
        "chance": 0, 
        "name": "Lead-Filled"
      }, 
      {
        "weighting": 1, 
        "chance": 0, 
        "name": "Dragonbone"
      }, 
      {
        "weighting": 1, 
        "chance": 0, 
        "name": "Crystal"
      }, 
      {
        "weighting": 1, 
        "chance": 0, 
        "name": "Diamond"
      }, 
      {
        "weighting": 1, 
        "chance": 0, 
        "name": "Blackrock"
      }, 
      {
        "weighting": 1, 
        "chance": 0, 
        "name": "Sharp"
      }, 
      {
        "weighting": 1, 
        "chance": 0, 
        "name": "Keen"
      }, 
      {
        "weighting": 1, 
        "chance": 0, 
        "name": "Vicious"
      }, 
      {
        "weighting": 1, 
        "chance": 0, 
        "name": "Brutal"
      }, 
      {
        "weighting": 1, 
        "chance": 0, 
        "name": "of Slicing"
      }, 
      {
        "weighting": 1, 
        "chance": 0, 
        "name": "of Chaos"
      }, 
      {
        "weighting": 1, 
        "chance": 0, 
        "name": "of Disruption"
      }, 
      {
        "weighting": 1, 
        "chance": 0, 
        "name": "of Balance"
      }, 
      {
        "weighting": 1, 
        "chance": 0, 
        "name": "of Force"
      }
    ], 
    "index": 27, 
    "name": "of *Slay Troll*", 
    "allocatorRules": [
      {
        "minDepth": 26, 
        "itemType": { "hafted": "all", "polearm": "all", "sword": "all" },
        "maxDepth": 66
      }
    ], 
    "position": "suffix"
  }, 
  {
    "affixes": [
      {
        "weighting": [0, 0], 
        "chance": [66, 33], 
        "name": "Journeyman's"
      }, 
      {
        "weighting": 15, 
        "chance": 100, 
        "name": "of Slay Giant"
      }, 
      {
        "weighting": 5, 
        "chance": 100, 
        "name": "of Robustness"
      }, 
      {
        "weighting": 5, 
        "chance": 100, 
        "name": "of Strength"
      }, 
      {
        "weighting": 1, 
        "chance": 0, 
        "name": "Elven"
      }, 
      {
        "weighting": 1, 
        "chance": 0, 
        "name": "Dwarven"
      }, 
      {
        "weighting": 1, 
        "chance": 0, 
        "name": "Trollish"
      }, 
      {
        "weighting": 1, 
        "chance": 0, 
        "name": "Dunadan"
      }, 
      {
        "weighting": 1, 
        "chance": 0, 
        "name": "Orcish"
      }, 
      {
        "weighting": 1, 
        "chance": 0, 
        "name": "Giant"
      }, 
      {
        "weighting": 1, 
        "chance": 0, 
        "name": "Runed"
      }, 
      {
        "weighting": 2, 
        "chance": 0, 
        "name": "Majestic"
      }, 
      {
        "weighting": 1, 
        "chance": 0, 
        "name": "Lead-Filled"
      }, 
      {
        "weighting": 1, 
        "chance": 0, 
        "name": "Dragonbone"
      }, 
      {
        "weighting": 1, 
        "chance": 0, 
        "name": "Crystal"
      }, 
      {
        "weighting": 1, 
        "chance": 0, 
        "name": "Diamond"
      }, 
      {
        "weighting": 1, 
        "chance": 0, 
        "name": "Blackrock"
      }, 
      {
        "weighting": 1, 
        "chance": 0, 
        "name": "Sharp"
      }, 
      {
        "weighting": 1, 
        "chance": 0, 
        "name": "Keen"
      }, 
      {
        "weighting": 1, 
        "chance": 0, 
        "name": "Vicious"
      }, 
      {
        "weighting": 1, 
        "chance": 0, 
        "name": "Brutal"
      }, 
      {
        "weighting": 1, 
        "chance": 0, 
        "name": "of Slicing"
      }, 
      {
        "weighting": 1, 
        "chance": 0, 
        "name": "of Chaos"
      }, 
      {
        "weighting": 1, 
        "chance": 0, 
        "name": "of Disruption"
      }, 
      {
        "weighting": 1, 
        "chance": 0, 
        "name": "of Balance"
      }, 
      {
        "weighting": 1, 
        "chance": 0, 
        "name": "of Force"
      }
    ], 
    "index": 28, 
    "name": "of *Slay Giant*", 
    "allocatorRules": [
      {
        "minDepth": 29, 
        "itemType": { "hafted": "all", "polearm": "all", "sword": "all" },
        "maxDepth": -1
      }
    ], 
    "position": "suffix"
  }, 
  {
    "affixes": [
      {
        "weighting": [0, 0], 
        "chance": [66, 33], 
        "name": "Journeyman's"
      }, 
      {
        "weighting": 5, 
        "chance": 100, 
        "name": "of Slay Dragon"
      }, 
      {
        "weighting": 10, 
        "chance": 100, 
        "name": "of Dragonbane"
      }, 
      {
        "weighting": 5, 
        "chance": 100, 
        "name": "of Bravery"
      }, 
      {
        "weighting": 5, 
        "chance": 100, 
        "name": "of Hardiness"
      }, 
      {
        "weighting": 1, 
        "chance": 0, 
        "name": "Elven"
      }, 
      {
        "weighting": 1, 
        "chance": 0, 
        "name": "Dwarven"
      }, 
      {
        "weighting": 1, 
        "chance": 0, 
        "name": "Trollish"
      }, 
      {
        "weighting": 1, 
        "chance": 0, 
        "name": "Dunadan"
      }, 
      {
        "weighting": 1, 
        "chance": 0, 
        "name": "Orcish"
      }, 
      {
        "weighting": 1, 
        "chance": 0, 
        "name": "Giant"
      }, 
      {
        "weighting": 1, 
        "chance": 0, 
        "name": "Runed"
      }, 
      {
        "weighting": 2, 
        "chance": 0, 
        "name": "Majestic"
      }, 
      {
        "weighting": 1, 
        "chance": 0, 
        "name": "Lead-Filled"
      }, 
      {
        "weighting": 1, 
        "chance": 0, 
        "name": "Dragonbone"
      }, 
      {
        "weighting": 1, 
        "chance": 0, 
        "name": "Crystal"
      }, 
      {
        "weighting": 1, 
        "chance": 0, 
        "name": "Diamond"
      }, 
      {
        "weighting": 1, 
        "chance": 0, 
        "name": "Blackrock"
      }, 
      {
        "weighting": 1, 
        "chance": 0, 
        "name": "Sharp"
      }, 
      {
        "weighting": 1, 
        "chance": 0, 
        "name": "Keen"
      }, 
      {
        "weighting": 1, 
        "chance": 0, 
        "name": "Vicious"
      }, 
      {
        "weighting": 1, 
        "chance": 0, 
        "name": "Brutal"
      }, 
      {
        "weighting": 1, 
        "chance": 0, 
        "name": "of Slicing"
      }, 
      {
        "weighting": 1, 
        "chance": 0, 
        "name": "of Chaos"
      }, 
      {
        "weighting": 1, 
        "chance": 0, 
        "name": "of Disruption"
      }, 
      {
        "weighting": 1, 
        "chance": 0, 
        "name": "of Balance"
      }, 
      {
        "weighting": 1, 
        "chance": 0, 
        "name": "of Force"
      }
    ], 
    "index": 29, 
    "name": "of *Slay Dragon*", 
    "allocatorRules": [
      {
        "minDepth": 29, 
        "itemType": { "hafted": "all", "polearm": "all", "sword": "all" },
        "maxDepth": -1
      }
    ], 
    "position": "suffix"
  }, 
  {
    "affixes": [
      {
        "weighting": 0, 
        "chance": 50, 
        "name": "Journeyman's"
      }, 
      {
        "weighting": 5, 
        "chance": 100, 
        "name": "Brutal"
      }, 
      {
        "weighting": 5, 
        "chance": 100, 
        "name": "of Acid"
      }, 
      {
        "weighting": 10, 
        "chance": 100, 
        "name": "of Impact"
      }, 
      {
        "weighting": [5, 0],
        "chance": [100, 100], 
        "name": "of Strength"
      }, 
      {
        "weighting": [5, 0], 
        "chance": [100, 100], 
        "name": "of Digging"
      }
    ], 
    "index": 30, 
    "name": "of Earthquakes", 
    "allocatorRules": [
      {
        "minDepth": 20, 
        "itemType": {
          "digger": [
            "all"
          ]
        }, 
        "maxDepth": -1
      }
    ], 
    "position": "suffix"
  }, 
  {
    "affixes": [
      {
        "weighting": 5, 
        "chance": 100, 
        "name": "of Accuracy"
      }, 
      {
        "weighting": 5, 
        "chance": 100, 
        "name": "of Power"
      }, 
      {
        "weighting": 0, 
        "chance": 100, 
        "name": "of Free Action"
      }, 
      {
        "weighting": 0, 
        "chance": 100, 
        "name": "of Durability"
      }, 
      {
        "weighting": [5, 0], 
        "chance": [100, 100],
        "name": "of Agility"
      }, 
      {
        "weighting": 10, 
        "chance": 100, 
        "name": "of Extra Might"
      }, 
      {
        "weighting": 0, 
        "chance": 100, 
        "name": "of Dweomercraft"
      }
    ], 
    "index": 31, 
    "name": "of Lothl\u00f3rien", 
    "allocatorRules": [
      {
        "minDepth": 40, 
        "itemType": { "launcher": ["& Short Bow~", "& Long Bow~"] }, 
        "maxDepth": -1
      }
    ], 
    "position": "suffix"
  }, 
  {
    "affixes": [
      {
        "weighting": 1, 
        "chance": 100, 
        "name": "Journeyman's"
      }, 
      {
        "weighting": 10, 
        "chance": 100, 
        "name": "of Extra Might"
      }, 
      {
        "weighting": 10, 
        "chance": 100, 
        "name": "of Extra Shots"
      }, 
      {
        "weighting": 0, 
        "chance": 100, 
        "name": "of Durability"
      }
    ], 
    "index": 32, 
    "name": "of the Haradrim", 
    "allocatorRules": [
      {
        "minDepth": 40, 
        "itemType": { "launcher": ["& Light Crossbow~"] }, 
        "maxDepth": -1
      }
    ], 
    "position": "suffix"
  }, 
  {
    "affixes": [
      {
        "weighting": 1, 
        "chance": 100, 
        "name": "Journeyman's"
      }, 
      {
        "weighting": 8, 
        "chance": 100, 
        "name": "of Extra Might"
      }, 
      {
        "weighting": 8, 
        "chance": 100, 
        "name": "of Extra Shots"
      }, 
      {
        "weighting": 0, 
        "chance": 100, 
        "name": "of Durability"
      }, 
      {
        "weighting": [8, 0], 
        "chance": [100, 100], 
        "name": "of Agility"
      }
    ], 
    "index": 33, 
    "name": "of Buckland", 
    "allocatorRules": [
      {
        "minDepth": 40, 
        "itemType": { "launcher": ["& Sling~"] }, 
        "maxDepth": -1
      }
    ], 
    "position": "suffix"
  }, 
  {
    "affixes": [
      {
        "weighting": 15, 
        "chance": 100, 
        "name": "of Observation"
      }, 
      {
        "weighting": 15, 
        "chance": 100, 
        "name": "of Seeing"
      }
    ], 
    "index": 34, 
    "name": "of True Sight", 
    "allocatorRules": [
      {
        "minDepth": 20, 
        "itemType": {
          "light source": [
            "all"
          ]
        }, 
        "maxDepth": -1
      }
    ], 
    "position": "suffix"
  }, 
  {
    "affixes": [
      {
        "weighting": [0, 0], 
        "chance": [66, 33], 
        "name": "Journeyman's"
      }, 
      {
        "weighting": 100, 
        "chance": 100, 
        "name": "of Piety"
      }, 
      {
        "weighting": 100, 
        "chance": 100, 
        "name": "of Wisdom"
      }, 
      {
        "weighting": 0, 
        "chance": 100, 
        "name": "of Dweomercraft"
      }
    ], 
    "index": 35, 
    "name": "Blessed", 
    "allocatorRules": [
      {
        "minDepth": 21, 
        "itemType": { "hafted": "all", "polearm": "all", "sword": "all" },
        "maxDepth": -1
      }
    ], 
    "position": "prefix"
  }, 
  {
    "affixes": [
      {
        "weighting": [0, 0, 0], 
        "chance": [100, 66, 33], 
        "name": "Journeyman's"
      }, 
      {
        "weighting": 1, 
        "chance": 100, 
        "name": "Silver"
      }, 
      {
        "weighting": 1, 
        "chance": 100, 
        "name": "Iron"
      }, 
      {
        "weighting": 7, 
        "chance": 100, 
        "name": "of Slay Demon"
      }, 
      {
        "weighting": 7, 
        "chance": 100, 
        "name": "of Slay Evil"
      }, 
      {
        "weighting": 7, 
        "chance": 100, 
        "name": "of Slay Undead"
      }, 
      {
        "weighting": 1, 
        "chance": 100, 
        "name": "of Durability"
      }
    ], 
    "index": 36, 
    "name": "of Holy Might", 
    "allocatorRules": [
      {
        "minDepth": 40, 
        "itemType": { "shot": "all", "arrow": "all", "bolt": "all" }, 
        "maxDepth": -1
      }
    ], 
    "position": "suffix"
  }, 
  {
    "affixes": [
      {
        "weighting": 10, 
        "chance": 100, 
        "name": "Black Dragon Scale"
      }, 
      {
        "weighting": 10, 
        "chance": 100, 
        "name": "White Dragon Scale"
      }, 
      {
        "weighting": 10, 
        "chance": 100, 
        "name": "Blue Dragon Scale"
      }, 
      {
        "weighting": 10, 
        "chance": 100, 
        "name": "Red Dragon Scale"
      }, 
      {
        "weighting": 10, 
        "chance": 100, 
        "name": "Green Dragon Scale"
      }, 
      {
        "weighting": 1, 
        "chance": 100, 
        "name": "of Resist Acid"
      }, 
      {
        "weighting": 1, 
        "chance": 100, 
        "name": "of Resist Cold"
      }, 
      {
        "weighting": 1, 
        "chance": 100, 
        "name": "of Resist Fire"
      }, 
      {
        "weighting": 1, 
        "chance": 100, 
        "name": "of Resist Lightning"
      }, 
      {
        "weighting": 60, 
        "chance": 100, 
        "name": "Null"
      }
    ], 
    "index": 37, 
    "name": "Multihued Dragon Scale", 
    "allocatorRules": [
      {
        "minDepth": 75, 
        "itemType": { "boots": ["& Pair~ of Hard Boots", "& Pair of Greaves"],
                      "helm": ["& Helm~", "& Full Helm~"],
                      "soft armour": ["all except", "& Robe~", "& Jerkin~"],
                      "hard armour": ["all except", "Ring Mail~", "Chain Mail~"],
                      "gloves": ["all except", "& Set~ of Gloves"],
                      "shield": "all" }, 
        "maxDepth": -1
      }
    ], 
    "position": "prefix"
  }, 
  {
    "affixes": [
      {
        "weighting": 4, 
        "chance": 100, 
        "name": "Law Dragon Scale"
      }, 
      {
        "weighting": 4, 
        "chance": 100, 
        "name": "Chaos Dragon Scale"
      }, 
      {
        "weighting": 1, 
        "chance": 100, 
        "name": "of Durability"
      }
    ], 
    "index": 38, 
    "name": "Balance Dragon Scale", 
    "allocatorRules": [
      {
        "minDepth": 95, 
        "itemType": { "boots": ["& Pair~ of Hard Boots", "& Pair of Greaves"],
                      "helm": ["& Helm~", "& Full Helm~"],
                      "soft armour": ["all except", "& Robe~", "& Jerkin~"],
                      "hard armour": ["all except", "Ring Mail~", "Chain Mail~"],
                      "gloves": ["all except", "& Set~ of Gloves"],
                      "shield": "all" }, 
        "maxDepth": -1
      }
    ], 
    "position": "prefix"
  },
  {
    "affixes": [
      {
        "weighting": 10, 
        "chance": 100, 
        "name": "Black Dragon Scale"
      }, 
      {
        "weighting": 10, 
        "chance": 100, 
        "name": "White Dragon Scale"
      }, 
      {
        "weighting": 10, 
        "chance": 100, 
        "name": "Blue Dragon Scale"
      }, 
      {
        "weighting": 10, 
        "chance": 100, 
        "name": "Red Dragon Scale"
      }, 
      {
        "weighting": 10, 
        "chance": 100, 
        "name": "Green Dragon Scale"
      }, 
      {
        "weighting": 10, 
        "chance": 100, 
        "name": "Law Dragon Scale"
      }, 
      {
        "weighting": 10, 
        "chance": 100, 
        "name": "Pseudo-dragon Scale"
      }, 
      {
        "weighting": 1, 
        "chance": 100, 
        "name": "of Chaos"
      }, 
      {
        "weighting": 1, 
        "chance": 100, 
        "name": "of Arcana"
      }, 
      {
        "weighting": 1, 
        "chance": 100, 
        "name": "of Certainty"
      }, 
      {
        "weighting": 60, 
        "chance": 100, 
        "name": "Null"
      }
    ], 
    "index": 39, 
    "name": "Power Dragon Scale", 
    "allocatorRules": [
      {
        "minDepth": 100, 
        "itemType": { "boots": ["& Pair~ of Hard Boots", "& Pair of Greaves"],
                      "helm": ["& Helm~", "& Full Helm~"],
                      "soft armour": ["all except", "& Robe~", "& Jerkin~"],
                      "hard armour": ["all except", "Ring Mail~", "Chain Mail~"],
                      "gloves": ["all except", "& Set~ of Gloves"],
                      "shield": "all" }, 
        "maxDepth": -1
      }
    ], 
    "position": "prefix"
  }
]
